…
``` r
tidyverse_commits <-
  repo_dirs %>%
  tibble(repo_dir = .,
         commit = map(repo_dir, ~ commits(repository(as.character(.x))))) %>%
  unnest() %>%
  # slice(1:10) %>%
  mutate(repo = basename(repo_dir),
         committed = ymd_hms(map_chr(commit, when)),
         name = map_chr(commit, ~ .x@committer@name),
         email = map_chr(commit, ~ .x@committer@email))
tidyverse_commits
```

    ## # A tibble: 22,376 x 6
    ##    repo_dir                               commit repo  committed          
    ##    <fs::path>                             <list> <chr> <dttm>             
    ##  1 /home/nacnudus/R/rstudioeye/repos/blob <S4: … blob  2017-11-30 10:35:21
    ##  2 /home/nacnudus/R/rstudioeye/repos/blob <S4: … blob  2017-11-30 10:35:17
    ##  3 /home/nacnudus/R/rstudioeye/repos/blob <S4: … blob  2017-11-30 10:35:15
    ##  4 /home/nacnudus/R/rstudioeye/repos/blob <S4: … blob  2017-11-30 10:35:08
    ##  5 /home/nacnudus/R/rstudioeye/repos/blob <S4: … blob  2017-11-29 16:05:04
    ##  6 /home/nacnudus/R/rstudioeye/repos/blob <S4: … blob  2017-11-29 09:40:17
    ##  7 /home/nacnudus/R/rstudioeye/repos/blob <S4: … blob  2017-11-29 09:40:13
    ##  8 /home/nacnudus/R/rstudioeye/repos/blob <S4: … blob  2017-11-29 09:40:10
    ##  9 /home/nacnudus/R/rstudioeye/repos/blob <S4: … blob  2017-11-29 09:39:44
    ## 10 /home/nacnudus/R/rstudioeye/repos/blob <S4: … blob  2017-11-29 09:38:20
    ## # ... with 22,366 more rows, and 2 more variables: name <chr>, email <chr>
…
People have used multiple email addresses

``` r
committers <- count(tidyverse_commits, email, sort = TRUE)
print(committers, n = 20)
```

    ## # A tibble: 344 x 2
    ##    email                               n
    ##    <chr>                           <int>
    ##  1 h.wickham@gmail.com             10368
    ##  2 romain@r-enthusiasts.com         2104
    ##  3 krlmlr+r@mailbox.org             1389
    ##  4 lionel.hry@gmail.com             1107
    ##  5 kirill.mueller@ivt.baug.ethz.ch   940
    ##  6 noreply@github.com                765
    ##  7 winston@stdout.org                693
    ##  8 jenny@stat.ubc.ca                 611
    ##  9 grolemund@gmail.com               601
    ## 10 james.f.hester@gmail.com          592
    ## 11 spinuvit@gmail.com                565
    ## 12 jenny.f.bryan@gmail.com           224
    ## 13 takahashi.kohske@gmail.com        219
    ## 14 ld.mcgowan@vanderbilt.edu         178
    ## 15 dgrtwo@princeton.edu              177
    ## 16 stefan@stefanbache.dk             116
    ## 17 krlmlr@users.noreply.github.com    90
    ## 18 drobinson@stackoverflow.com        85
    ## 19 irisson@normalesup.org             57
    ## 20 dchiu@bccrc.ca                     50
    ## # ... with 324 more rows

People have used multiple names

``` r
committers <- count(tidyverse_commits, name, sort = TRUE)
print(committers, n = 20)
```

    ## # A tibble: 351 x 2
    ##    name                           n
    ##    <chr>                      <int>
    ##  1 hadley                      9215
    ##  2 Kirill Müller               2419
    ##  3 Romain François             1481
    ##  4 Lionel Henry                1107
    ##  5 Hadley Wickham              1079
    ##  6 GitHub                       765
    ##  7 Winston Chang                692
    ##  8 Romain Francois              644
    ##  9 jennybc                      620
    ## 10 Jim Hester                   592
    ## 11 Vitalie Spinu                565
    ## 12 garrettgman                  324
    ## 13 Garrett                      264
    ## 14 Lucy                         178
    ## 15 Jenny Bryan                  164
    ## 16 dgrtwo                       147
    ## 17 Kohske Takahashi @ jurina     96
    ## 18 Dave Robinson                 85
    ## 19 hadley wickham                74
    ## 20 Kohske Takahashi at Haruna    65
    ## # ... with 331 more rows
…
